  -1.8327723e-03  -1.0288567e-01
  -1.0016495e+00  -7.5029232e-02
  -2.0014662e+00  -5.4636229e-02
  -3.0012829e+00  -3.9678094e-02
  -4.0010997e+00  -2.8666885e-02
  -5.0009164e+00  -2.0507277e-02
  -6.0007331e+00  -1.4387604e-02
  -7.0005498e+00  -9.6991185e-03
  -8.0003666e+00  -5.9754402e-03
  -9.0001833e+00  -2.8461610e-03
  -1.0000000e+01  -0.0000000e+00
