%
%
% Run:T11   Table:loc               SWAN version:40.85
%
%       Xp            Yp            Depth         Botlev        Hsig          RTpeak        Tm01          Tm02          Dspr     
%       [m]           [m]           [m]           [m]           [m]           [sec]         [sec]         [sec]         [degr]   
%
        5050.         5050.        5.0000        5.0000       0.29992        7.8303        6.6653        6.1682        2.0009 
